# PRECAUTION: avoid production dependencies that aren't in development

-r base.txt

gunicorn==20.1.0  # https://github.com/benoitc/gunicorn
psycopg2==2.9.3  # https://github.com/psycopg/psycopg2
hiredis==2.0.0  # https://github.com/redis/hiredis-py

# Django
# ------------------------------------------------------------------------------
django-anymail[mailgun]==8.5  # https://github.com/anymail/django-anymail
django-tables2==2.4.1

# LDAP
# ------------------------------------------------------------------------------
django-auth-ldap 
